{
  "/js/app.js": "/js/app.js",
  "/js/material.js": "/js/material.js",
  "/css/material.css": "/css/material.css",
  "/js/vue-material.js": "/js/vue-material.js",
  "/css/vue-material.css": "/css/vue-material.css"
}